{
   "source": "./src",
   "destination": "./api-documentation",
   "plugins": [
      {
         "name": "esdoc-brand-plugin",
         "option": {
           "title": "esdoc-custom-theme",
           "description": "A customizable theme for esdoc",
           "repository": "https://github.com/sinnerschrader/esdoc-custom-theme",
           "site": "sinnerschrader.github.io/esdoc-custom-theme",
           "author": "https://github.com/pixelass"
         }
       },
       {
         "name": "esdoc-publish-html-plugin",
         "option": {
           "template": "./node_modules/esdoc-custom-theme/template"
         }
       },
      {
      "name": "esdoc-standard-plugin",
      "option": {
         "lint": {
            "enable":false
         },
         "accessor": {
            "access": ["public", "protected", "private"],
            "autoPrivate": false
         },
         "undocumentIdentifier": {
            "enable": false
         },
         "unexportedIdentifier": {
            "enable": true
         },
         "brand": {
            "logo": "./logo.png",
            "title": "Akomando",
            "description": "Akomando is a library to handle AkomaNtoso documents",
            "repository": "https://gitlab.com/lucacervone/akomando",
            "site": "https://gitlab.com/lucacervone/akomando"
         },
         "typeInference": {
            "enable": true
         }
      }
   }]
}
