{
   "_InputIsNotAString": "Input argument is not a string",
   "_AKNDocumentIsNotSet": "AkomaNtoso document is not set",
   "_AKNSchemaIsNotSet": "AkomaNtoso schema is not set",
   "_AKNStringNotSpecified": "An AkomaNtoso document String is required",
   "_SerializationNotSupported": "The requested serialiation is not supported",
   "_InputIsNotABoolean": "Input argument is not a booelan",
   "_SortingNotSupported": "The requested sorting is not supported",
   "_OrderingNotSupported": "The requested ordering is not supported",
   "_ContextNotSupported": "The requested context is not supported",
   "_FilteringNotSupported": "The requested filtering is not supported"
}
